{
  "showGettingStartedBanner": true,
  "hasMigratedDailyNoteSettings": true,
  "hasMigratedWeeklyNoteSettings": false,
  "daily": {
    "folder": "Memos",
    "template": "Templater/日志模板",
    "enabled": true
  },
  "weekly": {
    "format": "",
    "template": "Templater/每周小结.md",
    "folder": "Memos",
    "enabled": true
  },
  "monthly": {
    "format": "",
    "template": "Templater/每月总结.md",
    "folder": "Memos",
    "enabled": true
  },
  "quarterly": {
    "format": "",
    "template": "Templater/",
    "folder": "Memos",
    "enabled": false
  },
  "yearly": {
    "format": "",
    "template": "Templater/小结.md",
    "folder": "Memos",
    "enabled": true
  }
}