{
  "strategy": "japanese",
  "matchStrategy": "prefix",
  "maxNumberOfSuggestions": 5,
  "maxNumberOfWordsAsPhrase": 3,
  "minNumberOfCharactersTriggered": 0,
  "minNumberOfWordsTriggeredPhrase": 1,
  "complementAutomatically": true,
  "delayMilliSeconds": 150,
  "disableSuggestionsDuringImeOn": false,
  "insertAfterCompletion": true,
  "firstCharactersDisableSuggestions": ":/^【[\\$#@^&*(!~`",
  "showMatchStrategy": true,
  "showIndexingStatus": true,
  "descriptionOnSuggestion": "Short",
  "selectSuggestionKeys": "Enter",
  "additionalCycleThroughSuggestionsKeys": "None",
  "openSourceFileKey": "None",
  "propagateEsc": false,
  "enableCurrentFileComplement": true,
  "onlyComplementEnglishOnCurrentFileComplement": false,
  "enableCurrentVaultComplement": false,
  "includeCurrentVaultPathPrefixPatterns": "",
  "excludeCurrentVaultPathPrefixPatterns": "",
  "includeCurrentVaultOnlyFilesUnderCurrentDirectory": false,
  "enableCustomDictionaryComplement": false,
  "customDictionaryPaths": "https://raw.githubusercontent.com/first20hours/google-10000-english/master/google-10000-english-no-swears.txt",
  "columnDelimiter": "Tab",
  "customDictionaryWordRegexPattern": "",
  "delimiterToHideSuggestion": "",
  "delimiterToDivideSuggestionsForDisplayFromInsertion": "",
  "caretLocationSymbolAfterComplement": "",
  "displayedTextSuffix": " => ...",
  "enableInternalLinkComplement": true,
  "suggestInternalLinkWithAlias": false,
  "excludeInternalLinkPathPrefixPatterns": "",
  "enableFrontMatterComplement": true,
  "frontMatterComplementMatchStrategy": "inherit",
  "insertCommaAfterFrontMatterCompletion": false,
  "showLogAboutPerformanceInConsole": false,
  "selectionHistoryTree": {
    "概念": {
      "概念": {
        "currentFile": {
          "count": 2,
          "lastUpdated": 1656747677726
        }
      }
    },
    "不当得利": {
      "不当得利": {
        "internalLink": {
          "count": 5,
          "lastUpdated": 1657620279840
        }
      }
    },
    "原则": {
      "原则": {
        "currentFile": {
          "count": 2,
          "lastUpdated": 1657183676938
        }
      }
    },
    "责任": {
      "责任": {
        "currentFile": {
          "count": 3,
          "lastUpdated": 1657620584534
        }
      }
    },
    "变更": {
      "变更": {
        "currentFile": {
          "count": 2,
          "lastUpdated": 1657096542115
        }
      }
    },
    "悬赏广告": {
      "悬赏广告": {
        "internalLink": {
          "count": 2,
          "lastUpdated": 1657618183916
        }
      }
    },
    "效力": {
      "效力": {
        "currentFile": {
          "count": 7,
          "lastUpdated": 1657120489171
        }
      }
    },
    "法律关系": {
      "法律关系": {
        "internalLink": {
          "count": 2,
          "lastUpdated": 1656921923310
        }
      }
    },
    "概述": {
      "概述": {
        "internalLink": {
          "count": 4,
          "lastUpdated": 1657045421172
        }
      }
    },
    "占有的效力": {
      "占有的效力": {
        "internalLink": {
          "count": 3,
          "lastUpdated": 1657617069570
        }
      }
    },
    "原因": {
      "原因": {
        "currentFile": {
          "count": 2,
          "lastUpdated": 1657006164020
        }
      }
    },
    "基本原则": {
      "基本原则": {
        "internalLink": {
          "count": 4,
          "lastUpdated": 1658138644316
        }
      }
    },
    "政策性银行的职能": {
      "政策性银行的职能": {
        "internalLink": {
          "count": 1,
          "lastUpdated": 1656833598730
        }
      }
    },
    "。】": {
      "。】": {
        "currentFile": {
          "count": 1,
          "lastUpdated": 1656835529138
        }
      }
    },
    "授权": {
      "授权": {
        "currentFile": {
          "count": 1,
          "lastUpdated": 1656851536934
        }
      }
    },
    "披露": {
      "披露": {
        "currentFile": {
          "count": 1,
          "lastUpdated": 1656852922950
        }
      }
    },
    "国有资产经营模式": {
      "国有资产经营模式": {
        "internalLink": {
          "count": 1,
          "lastUpdated": 1656857174638
        }
      }
    },
    "含义": {
      "含义": {
        "currentFile": {
          "count": 1,
          "lastUpdated": 1656857188919
        }
      }
    },
    "现点": {
      "现点": {
        "currentFile": {
          "count": 1,
          "lastUpdated": 1656920466089
        }
      }
    },
    "否定说": {
      "否定说": {
        "currentFile": {
          "count": 1,
          "lastUpdated": 1656920485106
        }
      }
    },
    "关系": {
      "关系": {
        "currentFile": {
          "count": 2,
          "lastUpdated": 1658301887520
        }
      }
    },
    "经济法": {
      "经济法": {
        "currentFile": {
          "count": 1,
          "lastUpdated": 1656921693017
        }
      }
    },
    "正当性": {
      "正当性": {
        "currentFile": {
          "count": 1,
          "lastUpdated": 1656922819077
        }
      }
    },
    "制度": {
      "制度": {
        "currentFile": {
          "count": 1,
          "lastUpdated": 1656942779523
        }
      }
    },
    "规制": {
      "规制": {
        "currentFile": {
          "count": 2,
          "lastUpdated": 1657004925060
        }
      }
    },
    "应明": {
      "应明": {
        "currentFile": {
          "count": 1,
          "lastUpdated": 1657002168505
        }
      }
    },
    "条件": {
      "条件": {
        "internalLink": {
          "count": 1,
          "lastUpdated": 1657005583711
        }
      }
    },
    "在原": {
      "在原": {
        "currentFile": {
          "count": 1,
          "lastUpdated": 1657007658642
        }
      }
    },
    "程序": {
      "程序": {
        "currentFile": {
          "count": 4,
          "lastUpdated": 1658030959974
        }
      }
    },
    "用对": {
      "用对": {
        "currentFile": {
          "count": 1,
          "lastUpdated": 1657044990862
        }
      }
    },
    "附带民事诉讼概述": {
      "附带民事诉讼概述": {
        "internalLink": {
          "count": 1,
          "lastUpdated": 1657048092282
        }
      }
    },
    "管辖权": {
      "管辖权": {
        "currentFile": {
          "count": 3,
          "lastUpdated": 1657092313363
        }
      }
    },
    "当事人": {
      "当事人": {
        "currentFile": {
          "count": 1,
          "lastUpdated": 1657096694906
        }
      }
    },
    "即可": {
      "即可": {
        "currentFile": {
          "count": 1,
          "lastUpdated": 1657120702108
        }
      }
    },
    "侵犯": {
      "侵犯": {
        "currentFile": {
          "count": 1,
          "lastUpdated": 1657185536040
        }
      }
    },
    "劳动权": {
      "劳动权": {
        "internalLink": {
          "count": 1,
          "lastUpdated": 1657185761019
        }
      }
    },
    "法官": {
      "法官": {
        "currentFile": {
          "count": 1,
          "lastUpdated": 1657219839886
        }
      }
    },
    "是我": {
      "是我": {
        "currentFile": {
          "count": 1,
          "lastUpdated": 1657223800365
        }
      }
    },
    "谋大逆": {
      "谋大逆": {
        "currentFile": {
          "count": 1,
          "lastUpdated": 1657256555357
        }
      }
    },
    "护律": {
      "护律": {
        "currentFile": {
          "count": 1,
          "lastUpdated": 1657308941377
        }
      }
    },
    "刑诉案例二": {
      "刑诉案例二": {
        "internalLink": {
          "count": 1,
          "lastUpdated": 1657443802283
        }
      }
    },
    "刑事诉讼法典": {
      "刑事诉讼法典": {
        "internalLink": {
          "count": 1,
          "lastUpdated": 1657444866770
        }
      }
    },
    "回避制度": {
      "回避制度": {
        "internalLink": {
          "count": 1,
          "lastUpdated": 1657449130085
        }
      }
    },
    "监视居住": {
      "监视居住": {
        "internalLink": {
          "count": 1,
          "lastUpdated": 1657482793438
        }
      }
    },
    "第七章占有": {
      "王泽鉴：占有": {
        "internalLink": {
          "count": 1,
          "lastUpdated": 1657484470550
        }
      }
    },
    "审判": {
      "审判": {
        "currentFile": {
          "count": 1,
          "lastUpdated": 1657533421570
        }
      }
    },
    "公诉案件的第一审程序": {
      "公诉案件的第一审程序": {
        "internalLink": {
          "count": 1,
          "lastUpdated": 1657533444773
        }
      }
    },
    "自诉案件的第一审程序": {
      "自诉案件的第一审程序": {
        "internalLink": {
          "count": 1,
          "lastUpdated": 1657536878013
        }
      }
    },
    "简易程序": {
      "简易程序": {
        "internalLink": {
          "count": 1,
          "lastUpdated": 1657537277210
        }
      }
    },
    "速裁程序": {
      "速裁程序": {
        "internalLink": {
          "count": 1,
          "lastUpdated": 1657537535151
        }
      }
    },
    "刑法": {
      "刑法": {
        "internalLink": {
          "count": 1,
          "lastUpdated": 1657548715636
        }
      }
    },
    "死刑": {
      "死刑": {
        "currentFile": {
          "count": 1,
          "lastUpdated": 1657550674808
        }
      }
    },
    "规定": {
      "规定": {
        "currentFile": {
          "count": 2,
          "lastUpdated": 1657611752614
        }
      }
    },
    "管理秩序罪": {
      "管理秩序罪": {
        "internalLink": {
          "count": 2,
          "lastUpdated": 1657554466579
        }
      }
    },
    "诈骗罪": {
      "诈骗罪": {
        "internalLink": {
          "count": 1,
          "lastUpdated": 1657606200304
        }
      }
    },
    "法人": {
      "法人": {
        "currentFile": {
          "count": 1,
          "lastUpdated": 1657612227217
        }
      }
    },
    "保护": {
      "保护": {
        "currentFile": {
          "count": 1,
          "lastUpdated": 1657616490665
        }
      }
    },
    "动产所有权": {
      "动产所有权": {
        "internalLink": {
          "count": 1,
          "lastUpdated": 1657616656235
        }
      }
    },
    "物权变动模式": {
      "物权变动模式": {
        "internalLink": {
          "count": 1,
          "lastUpdated": 1657616742696
        }
      }
    },
    "承诺": {
      "承诺": {
        "currentFile": {
          "count": 1,
          "lastUpdated": 1657617656111
        }
      }
    },
    "合同的成立与生效": {
      "合同的成立与生效": {
        "internalLink": {
          "count": 3,
          "lastUpdated": 1657619680654
        }
      }
    },
    "违约责任": {
      "违约责任": {
        "internalLink": {
          "count": 1,
          "lastUpdated": 1657619083467
        }
      }
    },
    "规则": {
      "规则": {
        "currentFile": {
          "count": 1,
          "lastUpdated": 1657619335839
        }
      }
    },
    "法条": {
      "法条": {
        "currentFile": {
          "count": 2,
          "lastUpdated": 1657619585284
        }
      }
    },
    "法条分析": {
      "法条分析": {
        "internalLink": {
          "count": 1,
          "lastUpdated": 1657619634828
        }
      }
    },
    "侵权": {
      "侵权": {
        "currentFile": {
          "count": 1,
          "lastUpdated": 1657620439066
        }
      }
    },
    "本原则": {
      "本原则": {
        "currentFile": {
          "count": 1,
          "lastUpdated": 1657621451518
        }
      }
    },
    "怀孕或": {
      "怀孕或": {
        "currentFile": {
          "count": 1,
          "lastUpdated": 1658002992389
        }
      }
    },
    "逮捕": {
      "逮捕": {
        "internalLink": {
          "count": 1,
          "lastUpdated": 1658033191100
        }
      }
    },
    "情形": {
      "情形": {
        "currentFile": {
          "count": 1,
          "lastUpdated": 1658033368528
        }
      }
    },
    "%】": {
      "%】": {
        "currentFile": {
          "count": 1,
          "lastUpdated": 1658094526769
        }
      }
    },
    "对比": {
      "对比": {
        "currentFile": {
          "count": 1,
          "lastUpdated": 1658128998425
        }
      }
    },
    "断型": {
      "断型": {
        "currentFile": {
          "count": 1,
          "lastUpdated": 1658136910745
        }
      }
    },
    "法律原则": {
      "法律原则": {
        "internalLink": {
          "count": 1,
          "lastUpdated": 1658137766363
        }
      }
    },
    "分类版": {
      "分类版": {
        "currentFile": {
          "count": 1,
          "lastUpdated": 1658138481448
        }
      }
    },
    "刑诉解释": {
      "刑诉解释": {
        "internalLink": {
          "count": 1,
          "lastUpdated": 1658138505007
        }
      }
    },
    "xm": {
      "xm": {
        "currentFile": {
          "count": 11,
          "lastUpdated": 1658146679637
        }
      }
    },
    "fl": {
      "fl": {
        "currentFile": {
          "count": 18,
          "lastUpdated": 1658146886753
        }
      }
    },
    "xs": {
      "xs": {
        "currentFile": {
          "count": 9,
          "lastUpdated": 1658146956167
        }
      }
    },
    "ms": {
      "ms": {
        "currentFile": {
          "count": 10,
          "lastUpdated": 1658146880198
        }
      }
    },
    "fl法": {
      "fl法": {
        "currentFile": {
          "count": 1,
          "lastUpdated": 1658140382541
        }
      }
    },
    "fs": {
      "fs": {
        "currentFile": {
          "count": 9,
          "lastUpdated": 1658146663458
        }
      }
    },
    "法制史背诵笔记导出": {
      "法制史背诵笔记导出": {
        "internalLink": {
          "count": 1,
          "lastUpdated": 1658148711994
        }
      }
    },
    "民法": {
      "民法": {
        "currentFile": {
          "count": 1,
          "lastUpdated": 1658149207850
        }
      }
    },
    "机关": {
      "机关": {
        "currentFile": {
          "count": 1,
          "lastUpdated": 1658182288178
        }
      }
    },
    "or": {
      "or": {
        "currentFile": {
          "count": 1,
          "lastUpdated": 1658298886007
        }
      }
    },
    "模式": {
      "模式": {
        "currentFile": {
          "count": 1,
          "lastUpdated": 1658339200959
        }
      }
    },
    "批具": {
      "批具": {
        "currentFile": {
          "count": 1,
          "lastUpdated": 1659288383294
        }
      }
    },
    "保障": {
      "保障": {
        "currentFile": {
          "count": 1,
          "lastUpdated": 1659339603582
        }
      }
    }
  }
}